[api-updater (non-obsolete-error-filter)] 2/14/2022 5:04:49 PM : Starting C:/Program Files/Unity/Hub/Editor/2020.3.28f1/Editor/Data/Tools/ScriptUpdater/APIUpdater.NonObsoleteApiUpdaterDetector.exe
[api-updater (non-obsolete-error-filter)] 
----------------------------------
jit/startup time      : 2228.5183ms
moved types parse time: 138ms
candidates parse time : 16ms
C# parse time         : 920ms
candidates check time : 378ms
console write time    : 0ms

[api-updater (non-obsolete-error-filter)] 2/14/2022 5:17:59 PM : Starting C:/Program Files/Unity/Hub/Editor/2020.3.28f1/Editor/Data/Tools/ScriptUpdater/APIUpdater.NonObsoleteApiUpdaterDetector.exe
[api-updater (non-obsolete-error-filter)] 
----------------------------------
jit/startup time      : 1424.3547ms
moved types parse time: 70ms
candidates parse time : 20ms
C# parse time         : 329ms
candidates check time : 443ms
console write time    : 0ms

